[gd_scene load_steps=4 format=2]

[ext_resource path="res://Assets/Assets/Tilesheet/colored_transparent.png" type="Texture" id=1]
[ext_resource path="res://Entities/Enemy/Mage_Spell.gd" type="Script" id=2]

[sub_resource type="CapsuleShape2D" id=1]
radius = 5.31714
height = 2.06602

[node name="Spell" type="Node2D" groups=[
"spell",
]]
rotation = 1.51545
script = ExtResource( 2 )

[node name="Sprite" type="Sprite" parent="."]
modulate = Color( 0.894118, 0.564706, 1, 1 )
texture = ExtResource( 1 )
hframes = 48
vframes = 22
frame = 878

[node name="Area2D" type="Area2D" parent="."]

[node name="CollisionShape2D" type="CollisionShape2D" parent="Area2D"]
shape = SubResource( 1 )

[node name="CPUParticles2D" type="CPUParticles2D" parent="."]
modulate = Color( 0.894118, 0.564706, 1, 1 )
position = Vector2( 0.442508, -7.98775 )
rotation = 3.24282
amount = 20
lifetime = 0.5
emission_shape = 2
emission_rect_extents = Vector2( 1, 1 )

[node name="Timer" type="Timer" parent="."]
wait_time = 2.0
autostart = true

[connection signal="body_entered" from="Area2D" to="." method="_on_Area2D_body_entered"]
[connection signal="timeout" from="Timer" to="." method="_on_Timer_timeout"]
