[gd_scene load_steps=2 format=2]

[ext_resource path="res://Entities/Fade/Fade.gd" type="Script" id=1]

[node name="Fade" type="Node2D"]
script = ExtResource( 1 )

[node name="ColorRect" type="ColorRect" parent="."]
margin_right = 1024.0
margin_bottom = 600.0
color = Color( 0, 0, 0, 1 )
__meta__ = {
"_edit_use_anchors_": false
}

[node name="Tween" type="Tween" parent="."]
