[gd_scene load_steps=5 format=2]

[ext_resource path="res://Entities/Enemy/Mage_Spell.tscn" type="PackedScene" id=1]
[ext_resource path="res://Map/Base_Map/Base_Map.tscn" type="PackedScene" id=2]
[ext_resource path="res://Entities/Tower/Tower.tscn" type="PackedScene" id=3]

[sub_resource type="Curve2D" id=1]
_data = {
"points": PoolVector2Array( 0, 0, 0, 0, 1041.73, 551.228, 0, 0, 0, 0, 23.7712, 552.417, 0, 0, 0, 0, 22.582, 407.334, 0, 0, 0, 0, 118.908, 404.955, 0, 0, 0, 0, 118.908, 460.848, 0, 0, 0, 0, 262.802, 458.47, 0, 0, 0, 0, 263.991, 408.523, 0, 0, 0, 0, 359.128, 408.523, 0, 0, 0, 0, 361.506, 453.713, 0, 0, 0, 0, 599.347, 454.902, 0, 0, 0, 0, 600.537, 410.901, 0, 0, 0, 0, 743.241, 407.334, 0, 0, 0, 0, 744.431, 459.659, 0, 0, 0, 0, 889.514, 457.28, 0, 0, 0, 0, 889.514, 407.334, 0, 0, 0, 0, 983.461, 406.144, 0, 0, 0, 0, 984.65, 311.008, 0, 0, 0, 0, 935.893, 312.197, 0, 0, 0, 0, 937.082, 212.304, 0, 0, 0, 0, 889.514, 213.493, 0, 0, 0, 0, 888.325, 165.925, 0, 0, 0, 0, 844.324, 165.925, 0, 0, 0, 0, 844.324, 74.3557, 0, 0, 0, 0, 746.809, 75.5449, 0, 0, 0, 0, 745.62, 118.356, 0, 0, 0, 0, 696.862, 119.546, 0, 0, 0, 0, 695.673, 168.303, 0, 0, 0, 0, 649.294, 168.303, 0, 0, 0, 0, 650.483, 215.871, 0, 0, 0, 0, 599.347, 218.25, 0, 0, 0, 0, 601.726, 263.44, 0, 0, 0, 0, 552.968, 264.629, 0, 0, 0, 0, 552.968, 358.576, 0, 0, 0, 0, 454.264, 360.955, 0, 0, 0, 0, 454.264, 17.2737, 0, 0, 0, 0, 359.128, 17.2737, 0, 0, 0, 0, 357.938, 71.9773, 0, 0, 0, 0, 311.559, 73.1665, 0, 0, 0, 0, 311.559, 117.167, 0, 0, 0, 0, 265.18, 117.167, 0, 0, 0, 0, 265.18, 167.114, 0, 0, 0, 0, 216.423, 167.114, 0, 0, 0, 0, 215.234, 215.871, 0, 0, 0, 0, 170.044, 217.06, 0, 0, 0, 0, 171.233, 263.44, 0, 0, 0, 0, 116.529, 264.629, 0, 0, 0, 0, 115.34, 309.819, 0, 0, 0, 0, 24.9604, 312.197, 0, 0, 0, 0, 22.582, 30.355 )
}

[node name="Base_Map" instance=ExtResource( 2 )]
spell_scene = ExtResource( 1 )
common_per_path = [ 1, 2 ]
fading_per_path = [ 1, 1 ]
mage_per_path = [ 1, 2 ]

[node name="Roads" parent="Tilemaps" index="0"]
tile_data = PoolIntArray( 7, 0, 6, 8, 0, 196609, 9, 0, 7, 65536, 0, 5, 65542, 0, 6, 65543, 0, 65543, 65545, 0, 65541, 65551, 0, 6, 65552, 0, 196609, 65553, 0, 7, 131072, 0, 65541, 131077, 0, 6, 131078, 0, 65543, 131081, 0, 65541, 131086, 0, 6, 131087, 0, 65543, 131089, 0, 65541, 196608, 0, 65541, 196612, 0, 6, 196613, 0, 65543, 196617, 0, 65541, 196621, 0, 6, 196622, 0, 65543, 196625, 0, 65542, 196626, 0, 7, 262144, 0, 65541, 262147, 0, 6, 262148, 0, 65543, 262153, 0, 65541, 262156, 0, 6, 262157, 0, 65543, 262162, 0, 65542, 262163, 0, 7, 327680, 0, 65541, 327682, 0, 6, 327683, 0, 65543, 327689, 0, 65541, 327691, 0, 6, 327692, 0, 65543, 327699, 0, 65541, 393216, 0, 65542, 393217, 0, 196609, 393218, 0, 65543, 393225, 0, 65541, 393227, 0, 65541, 393235, 0, 65542, 393236, 0, 7, 458761, 0, 65542, 458762, 0, 196609, 458763, 0, 65543, 458772, 0, 65541, 524288, 0, 6, 524289, 0, 196609, 524290, 0, 7, 524293, 0, 6, 524294, 0, 196609, 524295, 0, 7, 524300, 0, 6, 524301, 0, 196609, 524302, 0, 196609, 524303, 0, 7, 524306, 0, 6, 524307, 0, 196609, 524308, 0, 65543, 589824, 0, 65541, 589826, 0, 65542, 589827, 0, 196609, 589828, 0, 196609, 589829, 0, 65543, 589831, 0, 65542, 589832, 0, 196609, 589833, 0, 196609, 589834, 0, 196609, 589835, 0, 196609, 589836, 0, 65543, 589839, 0, 65542, 589840, 0, 196609, 589841, 0, 196609, 589842, 0, 65543, 655360, 0, 65541, 720896, 0, 65542, 720897, 0, 196609, 720898, 0, 196609, 720899, 0, 196609, 720900, 0, 196609, 720901, 0, 196609, 720902, 0, 196609, 720903, 0, 196609, 720904, 0, 196609, 720905, 0, 196609, 720906, 0, 196609, 720907, 0, 196609, 720908, 0, 196609, 720909, 0, 196609, 720910, 0, 196609, 720911, 0, 196609, 720912, 0, 196609, 720913, 0, 196609, 720914, 0, 196609, 720915, 0, 196609, 720916, 0, 196609, 720917, 0, 196610 )

[node name="Tower" parent="Towers" index="0"]
position = Vector2( 48.7588, -89.6209 )

[node name="Tower2" parent="Towers" index="1" instance=ExtResource( 3 )]
position = Vector2( -89.1905, 83.2445 )

[node name="Tower3" parent="Towers" index="2" instance=ExtResource( 3 )]
position = Vector2( 403.141, 1.18921 )

[node name="Tower5" parent="Towers" index="3" instance=ExtResource( 3 )]
position = Vector2( 646.928, 124.867 )

[node name="Tower4" parent="Towers" index="4" instance=ExtResource( 3 )]
position = Vector2( 53.5143, 222.382 )

[node name="Tower6" parent="Towers" index="5" instance=ExtResource( 3 )]
position = Vector2( 336.546, 248.544 )

[node name="Path1" type="Path2D" parent="Paths" index="0"]
curve = SubResource( 1 )

[node name="Player" parent="." index="6"]
position = Vector2( 316.975, 276.542 )

[node name="HUD" parent="GUI" index="0"]
position = Vector2( 517.946, -242.703 )
