[gd_scene load_steps=14 format=2]

[ext_resource path="res://Entities/House/House.tscn" type="PackedScene" id=1]
[ext_resource path="res://Entities/Wall/Wall.tscn" type="PackedScene" id=2]
[ext_resource path="res://Entities/Roads/Roads.tscn" type="PackedScene" id=3]
[ext_resource path="res://Entities/MainGuy/MainGuy.tscn" type="PackedScene" id=4]
[ext_resource path="res://Entities/Tower/Tower.tscn" type="PackedScene" id=5]
[ext_resource path="res://Map/Base_Map/Base_Map.gd" type="Script" id=6]
[ext_resource path="res://Entities/GUI/GUI.tscn" type="PackedScene" id=7]
[ext_resource path="res://Entities/Enemy/Fading_Enemy.tscn" type="PackedScene" id=8]
[ext_resource path="res://Entities/Enemy/Enemy_path.tscn" type="PackedScene" id=9]
[ext_resource path="res://Entities/Enemy/Mage_Enemy.tscn" type="PackedScene" id=10]
[ext_resource path="res://Entities/Enemy/Mage_Spell.tscn" type="PackedScene" id=11]

[sub_resource type="Curve2D" id=1]
_data = {
"points": PoolVector2Array( 0, 0, 0, 0, 264, 24, 0, 0, 0, 0, 264, 544 )
}

[sub_resource type="Curve2D" id=2]
_data = {
"points": PoolVector2Array( 0, 0, 0, 0, 600, 568, 0, 0, 0, 0, 600, 32 )
}

[node name="Base_Map" type="Node2D"]
script = ExtResource( 6 )
common_enemy = ExtResource( 9 )
fading_enemy = ExtResource( 8 )
mage_enemy = ExtResource( 10 )
spell_scene = ExtResource( 11 )
common_per_path = [ 0, 1 ]
fading_per_path = [ 2, 2 ]
mage_per_path = [ 0, 0 ]

[node name="OuterWalls" parent="." instance=ExtResource( 2 )]
modulate = Color( 0, 0, 0, 1 )
position = Vector2( 8, 12 )
z_index = -3
tile_data = PoolIntArray( -1, 0, 6, -65536, 0, 196609, -65535, 0, 196609, -65534, 0, 196609, -65533, 0, 196609, -65532, 0, 196609, -65531, 0, 196609, -65530, 0, 196609, -65529, 0, 196609, -65528, 0, 196609, -65527, 0, 196609, -65526, 0, 196609, -65525, 0, 196609, -65524, 0, 196609, -65523, 0, 196609, -65522, 0, 196609, -65521, 0, 196609, -65520, 0, 196609, -65519, 0, 196609, -65518, 0, 196609, -65517, 0, 196609, -65516, 0, 196609, -65515, 0, 7, 65535, 0, 65541, 21, 0, 65541, 131071, 0, 65541, 65557, 0, 65541, 196607, 0, 65541, 131093, 0, 65541, 262143, 0, 65541, 196629, 0, 65541, 327679, 0, 65541, 262165, 0, 65541, 393215, 0, 65541, 327701, 0, 65541, 458751, 0, 65541, 393237, 0, 65541, 524287, 0, 65541, 458773, 0, 65541, 589823, 0, 65541, 524309, 0, 65541, 655359, 0, 65541, 589845, 0, 65541, 720895, 0, 65541, 655381, 0, 65541, 786431, 0, 65541, 720917, 0, 65541, 851967, 0, 65542, 786432, 0, 196609, 786433, 0, 196609, 786434, 0, 196609, 786435, 0, 196609, 786436, 0, 196609, 786437, 0, 196609, 786438, 0, 196609, 786439, 0, 196609, 786440, 0, 196609, 786441, 0, 196609, 786442, 0, 196609, 786443, 0, 196609, 786444, 0, 196609, 786445, 0, 196609, 786446, 0, 196609, 786447, 0, 196609, 786448, 0, 196609, 786449, 0, 196609, 786450, 0, 196609, 786451, 0, 196609, 786452, 0, 196609, 786453, 0, 65543 )

[node name="Technical" type="Node2D" parent="."]
__meta__ = {
"_edit_lock_": true
}

[node name="Tween" type="Tween" parent="Technical"]

[node name="Spawn_Enemy" type="Timer" parent="Technical"]
process_mode = 0
wait_time = 4.0

[node name="Tilemaps" type="Node2D" parent="."]

[node name="Roads" parent="Tilemaps" instance=ExtResource( 3 )]
modulate = Color( 0.63, 0.327285, 0.0441, 1 )
tile_data = PoolIntArray( 5, 0, 5, 65541, 0, 65541, 65550, 0, 5, 131077, 0, 65541, 131086, 0, 65541, 196613, 0, 65541, 196622, 0, 65541, 262149, 0, 65541, 262158, 0, 65541, 327685, 0, 65541, 327694, 0, 65541, 393221, 0, 65541, 393230, 0, 65541, 458757, 0, 65541, 458766, 0, 65541, 524293, 0, 65541, 524302, 0, 65541, 589829, 0, 65541, 589838, 0, 65541, 655365, 0, 65541, 655374, 0, 65541, 720901, 0, 131077, 720910, 0, 65541, 786446, 0, 131077 )

[node name="Wall" parent="Tilemaps" instance=ExtResource( 2 )]

[node name="Houses" type="Node2D" parent="."]

[node name="House" parent="Houses" instance=ExtResource( 1 )]
position = Vector2( 264, 576 )

[node name="House2" parent="Houses" instance=ExtResource( 1 )]
position = Vector2( 696, 24 )

[node name="Towers" type="Node2D" parent="."]
position = Vector2( 160, 160 )

[node name="Tower" parent="Towers" instance=ExtResource( 5 )]
position = Vector2( 328, 136 )
ammo = 15

[node name="Paths" type="Node2D" parent="."]

[node name="Path1" type="Path2D" parent="Paths"]
curve = SubResource( 1 )

[node name="Path2" type="Path2D" parent="Paths"]
curve = SubResource( 2 )

[node name="Player" parent="." instance=ExtResource( 4 )]
position = Vector2( 160, 160 )

[node name="GUI" type="CanvasLayer" parent="."]

[node name="HUD" parent="GUI" instance=ExtResource( 7 )]
position = Vector2( 512, -232 )
scale = Vector2( 0.5, 0.5 )

[connection signal="timeout" from="Technical/Spawn_Enemy" to="." method="_on_Spawn_Enemy_timeout"]
[connection signal="restart" from="GUI/HUD" to="." method="restart"]
[connection signal="start_wave" from="GUI/HUD" to="." method="_on_start_wave"]
