[gd_scene load_steps=14 format=2]

[ext_resource path="res://Entities/House/House.tscn" type="PackedScene" id=1]
[ext_resource path="res://Entities/Wall/Wall.tscn" type="PackedScene" id=2]
[ext_resource path="res://Entities/Roads/Roads.tscn" type="PackedScene" id=3]
[ext_resource path="res://Entities/MainGuy/MainGuy.tscn" type="PackedScene" id=4]
[ext_resource path="res://Entities/Tower/Tower.tscn" type="PackedScene" id=5]
[ext_resource path="res://Map/Base_Map/Base_Map.gd" type="Script" id=6]
[ext_resource path="res://Entities/GUI/GUI.tscn" type="PackedScene" id=7]
[ext_resource path="res://Entities/Enemy/Fading_Enemy.tscn" type="PackedScene" id=8]
[ext_resource path="res://Entities/Enemy/Enemy_path.tscn" type="PackedScene" id=9]
[ext_resource path="res://Entities/Enemy/Mage_Enemy.tscn" type="PackedScene" id=10]
[ext_resource path="res://Entities/Enemy/Mage_Spell.tscn" type="PackedScene" id=11]

[sub_resource type="Curve2D" id=1]
_data = {
"points": PoolVector2Array( 0, 0, 0, 0, 1024, 408, 0, 0, 0, 0, 32, 408 )
}

[sub_resource type="Curve2D" id=2]
_data = {
"points": PoolVector2Array( 0, 0, 0, 0, 8, 504, 0, 0, 0, 0, 744, 504 )
}

[node name="Base_Map" type="Node2D"]
script = ExtResource( 6 )
common_enemy = ExtResource( 9 )
fading_enemy = ExtResource( 8 )
mage_enemy = ExtResource( 10 )
spell_scene = ExtResource( 11 )
common_per_path = [ 2, 2 ]
fading_per_path = [ 7, 7 ]
mage_per_path = [ 0, 1 ]

[node name="OuterWalls" parent="." instance=ExtResource( 2 )]
modulate = Color( 0, 0, 0, 1 )
position = Vector2( 8, 12 )
z_index = -3
tile_data = PoolIntArray( -1, 0, 6, -65536, 0, 196609, -65535, 0, 196609, -65534, 0, 196609, -65533, 0, 196609, -65532, 0, 196609, -65531, 0, 196609, -65530, 0, 196609, -65529, 0, 196609, -65528, 0, 196609, -65527, 0, 196609, -65526, 0, 196609, -65525, 0, 196609, -65524, 0, 196609, -65523, 0, 196609, -65522, 0, 196609, -65521, 0, 196609, -65520, 0, 196609, -65519, 0, 196609, -65518, 0, 196609, -65517, 0, 196609, -65516, 0, 196609, -65515, 0, 7, 65535, 0, 65541, 21, 0, 65541, 131071, 0, 65541, 65557, 0, 65541, 196607, 0, 65541, 131093, 0, 65541, 262143, 0, 65541, 196629, 0, 65541, 327679, 0, 65541, 262165, 0, 65541, 393215, 0, 65541, 327701, 0, 65541, 458751, 0, 65541, 393237, 0, 65541, 524287, 0, 65541, 458773, 0, 65541, 589823, 0, 65541, 524309, 0, 65541, 655359, 0, 65541, 589845, 0, 65541, 720895, 0, 65541, 655381, 0, 65541, 786431, 0, 65541, 720917, 0, 65541, 851967, 0, 65542, 786432, 0, 196609, 786433, 0, 196609, 786434, 0, 196609, 786435, 0, 196609, 786436, 0, 196609, 786437, 0, 196609, 786438, 0, 196609, 786439, 0, 196609, 786440, 0, 196609, 786441, 0, 196609, 786442, 0, 196609, 786443, 0, 196609, 786444, 0, 196609, 786445, 0, 196609, 786446, 0, 196609, 786447, 0, 196609, 786448, 0, 196609, 786449, 0, 196609, 786450, 0, 196609, 786451, 0, 196609, 786452, 0, 196609, 786453, 0, 65543 )

[node name="Technical" type="Node2D" parent="."]
__meta__ = {
"_edit_lock_": true
}

[node name="Tween" type="Tween" parent="Technical"]

[node name="Spawn_Enemy" type="Timer" parent="Technical"]
process_mode = 0
wait_time = 0.5

[node name="Tilemaps" type="Node2D" parent="."]

[node name="Roads" parent="Tilemaps" instance=ExtResource( 3 )]
modulate = Color( 0.63, 0.327285, 0.0441, 1 )
tile_data = PoolIntArray( 458753, 0, 196608, 458754, 0, 196609, 458755, 0, 196609, 458756, 0, 196609, 458757, 0, 196609, 458758, 0, 196609, 458759, 0, 196609, 458760, 0, 196609, 458761, 0, 196609, 458762, 0, 196609, 458763, 0, 196609, 458764, 0, 196609, 458765, 0, 196609, 458766, 0, 196609, 458767, 0, 196609, 458768, 0, 196609, 458769, 0, 196609, 458770, 0, 196609, 458771, 0, 196609, 458772, 0, 196609, 458773, 0, 196610, 655360, 0, 196608, 655361, 0, 196609, 655362, 0, 196609, 655363, 0, 196609, 655364, 0, 196609, 655365, 0, 196609, 655366, 0, 196609, 655367, 0, 196609, 655368, 0, 196609, 655369, 0, 196609, 655370, 0, 196609, 655371, 0, 196609, 655372, 0, 196609, 655373, 0, 196609, 655374, 0, 196610 )

[node name="Wall" parent="Tilemaps" instance=ExtResource( 2 )]
tile_data = PoolIntArray( 3, 0, 5, 17, 0, 5, 65539, 0, 65541, 65553, 0, 65541, 131075, 0, 65542, 131076, 0, 196609, 131077, 0, 196609, 131078, 0, 196609, 131079, 0, 196609, 131080, 0, 196609, 131081, 0, 196609, 131082, 0, 196609, 131083, 0, 196609, 131084, 0, 196609, 131085, 0, 196609, 131086, 0, 196609, 131087, 0, 196609, 131088, 0, 196609, 131089, 0, 65543 )

[node name="Houses" type="Node2D" parent="."]

[node name="House" parent="Houses" instance=ExtResource( 1 )]
position = Vector2( 740.238, 499.708 )

[node name="House2" parent="Houses" instance=ExtResource( 1 )]
position = Vector2( 28.8216, 354.173 )

[node name="Towers" type="Node2D" parent="."]
visible = false
position = Vector2( 160, 160 )

[node name="Tower" parent="Towers" instance=ExtResource( 5 )]
position = Vector2( 200, 392 )
ammo = 30

[node name="Tower2" parent="Towers" instance=ExtResource( 5 )]
position = Vector2( 464, 392 )
ammo = 27

[node name="Paths" type="Node2D" parent="."]

[node name="Path1" type="Path2D" parent="Paths"]
position = Vector2( 0.986328, -45.2958 )
curve = SubResource( 1 )

[node name="Path2" type="Path2D" parent="Paths"]
curve = SubResource( 2 )

[node name="Player" parent="." instance=ExtResource( 4 )]
position = Vector2( 528, 64 )

[node name="GUI" type="CanvasLayer" parent="."]

[node name="HUD" parent="GUI" instance=ExtResource( 7 )]
position = Vector2( 512, -232 )
scale = Vector2( 0.5, 0.5 )

[connection signal="timeout" from="Technical/Spawn_Enemy" to="." method="_on_Spawn_Enemy_timeout"]
[connection signal="restart" from="GUI/HUD" to="." method="restart"]
[connection signal="start_wave" from="GUI/HUD" to="." method="_on_start_wave"]
