[gd_scene load_steps=5 format=2]

[ext_resource path="res://Map/Base_Map/Base_Map.tscn" type="PackedScene" id=1]
[ext_resource path="res://Assets/Assets/Font/connection-ii/ConnectionIi-2wj8.otf" type="DynamicFontData" id=2]

[sub_resource type="Curve2D" id=1]
_data = {
"points": PoolVector2Array( 0, 0, 0, 0, 16, 168, 0, 0, 0, 0, 600, 168, 0, 0, 0, 0, 600, 312, 0, 0, 0, 0, 792, 312, 0, 0, 0, 0, 792, 408, 0, 0, 0, 0, 936, 408, 0, 0, 0, 0, 936, 496 )
}

[sub_resource type="DynamicFont" id=2]
size = 100
font_data = ExtResource( 2 )

[node name="Level1" instance=ExtResource( 1 )]
common_per_path = [ 1 ]

[node name="Roads" parent="Tilemaps" index="0"]
tile_data = PoolIntArray( 196608, 0, 196608, 196609, 0, 196609, 196610, 0, 196609, 196611, 0, 196609, 196612, 0, 196609, 196613, 0, 196609, 196614, 0, 196609, 196615, 0, 196609, 196616, 0, 196609, 196617, 0, 196609, 196618, 0, 196609, 196619, 0, 196609, 196620, 0, 7, 262156, 0, 65541, 327692, 0, 65541, 393228, 0, 65542, 393229, 0, 196609, 393230, 0, 196609, 393231, 0, 196609, 393232, 0, 7, 458768, 0, 65541, 524304, 0, 65542, 524305, 0, 196609, 524306, 0, 196609, 524307, 0, 7, 589843, 0, 131077 )

[node name="House" parent="Houses" index="0"]
position = Vector2( 936, 504 )

[node name="Tower" parent="Towers" index="0"]
position = Vector2( 480, 416 )
ammo = 1

[node name="Path1" type="Path2D" parent="Paths" index="0"]
curve = SubResource( 1 )

[node name="Player" parent="." index="6"]
position = Vector2( 480, 352 )

[node name="Tutorial" type="Label" parent="." index="8"]
margin_left = 20.0
margin_top = 25.0
margin_right = 2525.0
margin_bottom = 331.0
rect_scale = Vector2( 0.25, 0.25 )
custom_fonts/font = SubResource( 2 )
custom_colors/font_color = Color( 1, 1, 1, 1 )
text = "Use WASD to move around.
Press SPACE to link with the crystals 
and drag them. 
If you need to retry, press the restart (top right)."
__meta__ = {
"_edit_use_anchors_": false
}
