[gd_scene load_steps=4 format=2]

[ext_resource path="res://Map/Base_Map/Base_Map.tscn" type="PackedScene" id=1]
[ext_resource path="res://Entities/Tower/Tower.tscn" type="PackedScene" id=6]

[sub_resource type="Curve2D" id=1]
_data = {
"points": PoolVector2Array( 0, 0, 0, 0, 696, 24, 0, 0, 0, 0, 696, 312, 0, 0, 0, 0, 456, 312, 0, 0, 0, 0, 456, 216, 0, 0, 0, 0, 552, 216, 0, 0, 0, 0, 552, 312, 0, 0, 0, 0, 312, 312, 0, 0, 0, 0, 312, 32 )
}

[node name="Level6" instance=ExtResource( 1 )]
common_per_path = [ 4 ]

[node name="Roads" parent="Tilemaps" index="0"]
tile_data = PoolIntArray( 14, 0, 5, 65542, 0, 5, 65550, 0, 65541, 131078, 0, 65541, 131086, 0, 65541, 196614, 0, 65541, 196622, 0, 65541, 262150, 0, 65541, 262153, 0, 6, 262154, 0, 196609, 262155, 0, 7, 262158, 0, 65541, 327686, 0, 65541, 327689, 0, 65541, 327691, 0, 65541, 327694, 0, 65541, 393222, 0, 65542, 393223, 0, 196609, 393224, 0, 196609, 393225, 0, 196611, 393226, 0, 196609, 393227, 0, 196611, 393228, 0, 196609, 393229, 0, 196609, 393230, 0, 65543 )

[node name="Wall" parent="Tilemaps" index="1"]
tile_data = PoolIntArray( 458760, 0, 5, 458764, 0, 5, 524296, 0, 65541, 524300, 0, 65541, 589832, 0, 65541, 589836, 0, 65541, 655368, 0, 65541, 655372, 0, 65541, 720904, 0, 65541, 720908, 0, 65541, 786440, 0, 65541, 786444, 0, 65541, 851976, 0, 131077, 851980, 0, 131077 )

[node name="House" parent="Houses" index="0"]
position = Vector2( 312, 32 )

[node name="Tower" parent="Towers" index="0"]
position = Vector2( 504, 360 )
ammo = 1

[node name="Tower2" parent="Towers" index="1" instance=ExtResource( 6 )]
position = Vector2( 504, 536 )
ammo = 3

[node name="Path2D" type="Path2D" parent="Paths" index="0"]
curve = SubResource( 1 )

[node name="Player" parent="." index="6"]
position = Vector2( 512, 128 )

[node name="HUD" parent="GUI" index="0"]
countdown_wait_time = 120
