[gd_scene load_steps=5 format=2]

[ext_resource path="res://Map/Base_Map/Base_Map.tscn" type="PackedScene" id=1]
[ext_resource path="res://Entities/Tower/Tower.tscn" type="PackedScene" id=2]

[sub_resource type="Curve2D" id=1]
_data = {
"points": PoolVector2Array( 0, 0, 0, 0, 8, 168, 0, 0, 0, 0, 840, 168, 0, 0, 0, 0, 840, 312, 0, 0, 0, 0, 24, 312 )
}

[sub_resource type="Curve2D" id=2]
_data = {
"points": PoolVector2Array( 0, 0, 0, 0, 8, 456, 0, 0, 0, 0, 840, 456, 0, 0, 0, 0, 840, 312, 0, 0, 0, 0, 16, 312 )
}

[node name="LevelA" instance=ExtResource( 1 )]
common_per_path = [ 2, 2 ]
fading_per_path = [ 5, 5 ]
mage_per_path = [ 1, 1 ]

[node name="Roads" parent="Tilemaps" index="0"]
tile_data = PoolIntArray( 196608, 0, 196608, 196609, 0, 196609, 196610, 0, 196609, 196611, 0, 196609, 196612, 0, 196609, 196613, 0, 196609, 196614, 0, 196609, 196615, 0, 196609, 196616, 0, 196609, 196617, 0, 196609, 196618, 0, 196609, 196619, 0, 196609, 196620, 0, 196609, 196621, 0, 196609, 196622, 0, 196609, 196623, 0, 196609, 196624, 0, 196609, 196625, 0, 7, 262161, 0, 65541, 327697, 0, 65541, 393217, 0, 196608, 393218, 0, 196609, 393219, 0, 196609, 393220, 0, 196609, 393221, 0, 196609, 393222, 0, 196609, 393223, 0, 196609, 393224, 0, 196609, 393225, 0, 196609, 393226, 0, 196609, 393227, 0, 196609, 393228, 0, 196609, 393229, 0, 196609, 393230, 0, 196609, 393231, 0, 196609, 393232, 0, 196609, 393233, 0, 196612, 458769, 0, 65541, 524305, 0, 65541, 589824, 0, 196608, 589825, 0, 196609, 589826, 0, 196609, 589827, 0, 196609, 589828, 0, 196609, 589829, 0, 196609, 589830, 0, 196609, 589831, 0, 196609, 589832, 0, 196609, 589833, 0, 196609, 589834, 0, 196609, 589835, 0, 196609, 589836, 0, 196609, 589837, 0, 196609, 589838, 0, 196609, 589839, 0, 196609, 589840, 0, 196609, 589841, 0, 65543 )

[node name="Wall" parent="Tilemaps" index="1"]
tile_data = PoolIntArray( 262144, 0, 196608, 262145, 0, 196609, 262146, 0, 196609, 262147, 0, 196609, 262148, 0, 196609, 262149, 0, 196609, 262150, 0, 196609, 262151, 0, 196609, 262152, 0, 196609, 262153, 0, 196609, 262154, 0, 196609, 262155, 0, 196609, 262156, 0, 196609, 262157, 0, 196609, 262158, 0, 196609, 262159, 0, 196609, 262160, 0, 196610, 524288, 0, 196608, 524289, 0, 196609, 524290, 0, 196609, 524291, 0, 196609, 524292, 0, 196609, 524293, 0, 196609, 524294, 0, 196609, 524295, 0, 196609, 524296, 0, 196609, 524297, 0, 196609, 524298, 0, 196609, 524299, 0, 196609, 524300, 0, 196609, 524301, 0, 196609, 524302, 0, 196609, 524303, 0, 196609, 524304, 0, 196610 )

[node name="House" parent="Houses" index="0"]
position = Vector2( 29.8944, 307.616 )

[node name="Tower" parent="Towers" index="0"]
position = Vector2( 132.068, 261.592 )
ammo = 25

[node name="Tower2" parent="Towers" index="1" instance=ExtResource( 2 )]
position = Vector2( 132.002, 361.519 )
ammo = 25

[node name="Path1" type="Path2D" parent="Paths" index="0"]
curve = SubResource( 1 )

[node name="Path2" type="Path2D" parent="Paths" index="1"]
curve = SubResource( 2 )
